dump-pipeline.vcd
$date
	Sun Jun  4 12:45:04 2023
$end
$version
	Icarus Verilog
$end
$timescale
	1s
$end
$scope module testbench $end
$scope module dut $end
$var wire 32 ! gpr_write_data_from_stage_writeback [31:0] $end
$var wire 1 " reset $end
$var wire 1 # system_clock $end
$var wire 1 $ write_enable $end
$var wire 1 % zero_output_stage_memory $end
$var wire 1 & zero_output $end
$var wire 5 ' temporary_register_stage_execution [4:0] $end
$var wire 5 ( temporary_register [4:0] $end
$var wire 5 ) source_register_stage_execution [4:0] $end
$var wire 5 * source_register [4:0] $end
$var wire 1 + shift_upper $end
$var wire 1 , register_write_stage_writeback $end
$var wire 1 - register_write_stage_memory $end
$var wire 1 . register_write_stage_execution $end
$var wire 1 / register_write $end
$var wire 1 0 register_destination_stage_execution $end
$var wire 1 1 register_destination $end
$var wire 32 2 program_counter_plus4_stage_decode [31:0] $end
$var wire 32 3 program_counter_plus4 [31:0] $end
$var wire 32 4 program_counter [31:0] $end
$var wire 6 5 opcode [5:0] $end
$var wire 1 6 memory_write_stage_memory $end
$var wire 1 7 memory_write_stage_execution $end
$var wire 1 8 memory_write $end
$var wire 1 9 memory_to_register_stage_writeback $end
$var wire 1 : memory_to_register_stage_memory $end
$var wire 1 ; memory_to_register_stage_execution $end
$var wire 1 < memory_to_register $end
$var wire 1 = memory_read_stage_execution $end
$var wire 1 > memory_read $end
$var wire 1 ? jump_stage_memory $end
$var wire 1 @ jump_stage_execution $end
$var wire 32 A jump_address_stage_memory [31:0] $end
$var wire 32 B jump_address_stage_execution [31:0] $end
$var wire 32 C jump_address [31:0] $end
$var wire 1 D jump $end
$var wire 32 E instruction_stage_decode [31:0] $end
$var wire 32 F instruction [31:0] $end
$var wire 16 G immediate [15:0] $end
$var wire 32 H gpr_write_data [31:0] $end
$var wire 5 I gpr_write_address_stage_writeback [4:0] $end
$var wire 5 J gpr_write_address_stage_memory [4:0] $end
$var wire 5 K gpr_write_address_stage_execution [4:0] $end
$var wire 5 L gpr_write_address [4:0] $end
$var wire 32 M gpr_data_out_2_stage_memory [31:0] $end
$var wire 32 N gpr_data_out_2_stage_execution [31:0] $end
$var wire 32 O gpr_data_out_2 [31:0] $end
$var wire 32 P gpr_data_out_1_stage_execution [31:0] $end
$var wire 32 Q gpr_data_out_1 [31:0] $end
$var wire 6 R function_code_stage_execution [5:0] $end
$var wire 6 S function_code [5:0] $end
$var wire 32 T extended_immediate_stage_execution [31:0] $end
$var wire 32 U extended_immediate [31:0] $end
$var wire 5 V destination_register_stage_execution [4:0] $end
$var wire 5 W destination_register [4:0] $end
$var wire 32 X data_memory_out_stage_writeback [31:0] $end
$var wire 32 Y data_memory_out [31:0] $end
$var wire 1 Z branch_ne $end
$var wire 1 [ branch_eq_stage_memory $end
$var wire 1 \ branch_eq_stage_execution $end
$var wire 1 ] branch_eq $end
$var wire 32 ^ branch_address_stage_memory [31:0] $end
$var wire 32 _ branch_address_stage_execution [31:0] $end
$var wire 32 ` branch_address [31:0] $end
$var wire 1 a alu_source_stage_execution $end
$var wire 1 b alu_source $end
$var wire 32 c alu_result_stage_writeback [31:0] $end
$var wire 32 d alu_result_stage_memory [31:0] $end
$var wire 32 e alu_result [31:0] $end
$var wire 2 f alu_opcode_stage_execution [1:0] $end
$var wire 2 g alu_opcode [1:0] $end
$var wire 4 h alu_control_signal [3:0] $end
$var reg 1 i flush_stage_decode $end
$var reg 1 j flush_stage_execution $end
$var reg 1 k flush_stage_fetch $end
$var reg 2 l forward_a [1:0] $end
$var reg 2 m forward_b [1:0] $end
$var reg 32 n forward_data1_stage_execution [31:0] $end
$var reg 32 o forward_data2_stage_execution [31:0] $end
$var reg 1 p should_branch $end
$var reg 1 q stall_stage_ifid $end
$scope module ALU $end
$var wire 32 r operand_a [31:0] $end
$var wire 32 s operand_b [31:0] $end
$var wire 1 & zero_output $end
$var wire 32 t subtraction_output [31:0] $end
$var wire 1 u overflow_subtraction $end
$var wire 1 v overflow_signal $end
$var wire 1 w overflow_addition $end
$var wire 1 x less_than_signal $end
$var wire 4 y control_input [3:0] $end
$var wire 32 z addition_output [31:0] $end
$var reg 32 { result_output [31:0] $end
$upscope $end
$scope module ALUC $end
$var wire 2 | alu_operation [1:0] $end
$var wire 6 } function_code [5:0] $end
$var reg 4 ~ alu_control_signal [3:0] $end
$var reg 4 !" alu_opcode [3:0] $end
$upscope $end
$scope module GPR $end
$var wire 5 "" read_address_1 [4:0] $end
$var wire 5 #" read_address_2 [4:0] $end
$var wire 1 # system_clock $end
$var wire 5 $" write_address [4:0] $end
$var wire 32 %" write_data [31:0] $end
$var wire 1 , write_enable $end
$var wire 32 &" read_data_2 [31:0] $end
$var wire 32 '" read_data_1 [31:0] $end
$var integer 32 (" i [31:0] $end
$scope begin register[0] $end
$var wire 32 )" registers_ [31:0] $end
$upscope $end
$scope begin register[1] $end
$var wire 32 *" registers_ [31:0] $end
$upscope $end
$scope begin register[2] $end
$var wire 32 +" registers_ [31:0] $end
$upscope $end
$scope begin register[3] $end
$var wire 32 ," registers_ [31:0] $end
$upscope $end
$scope begin register[4] $end
$var wire 32 -" registers_ [31:0] $end
$upscope $end
$scope begin register[5] $end
$var wire 32 ." registers_ [31:0] $end
$upscope $end
$scope begin register[6] $end
$var wire 32 /" registers_ [31:0] $end
$upscope $end
$scope begin register[7] $end
$var wire 32 0" registers_ [31:0] $end
$upscope $end
$scope begin register[8] $end
$var wire 32 1" registers_ [31:0] $end
$upscope $end
$scope begin register[9] $end
$var wire 32 2" registers_ [31:0] $end
$upscope $end
$scope begin register[10] $end
$var wire 32 3" registers_ [31:0] $end
$upscope $end
$scope begin register[11] $end
$var wire 32 4" registers_ [31:0] $end
$upscope $end
$scope begin register[12] $end
$var wire 32 5" registers_ [31:0] $end
$upscope $end
$scope begin register[13] $end
$var wire 32 6" registers_ [31:0] $end
$upscope $end
$scope begin register[14] $end
$var wire 32 7" registers_ [31:0] $end
$upscope $end
$scope begin register[15] $end
$var wire 32 8" registers_ [31:0] $end
$upscope $end
$scope begin register[16] $end
$var wire 32 9" registers_ [31:0] $end
$upscope $end
$scope begin register[17] $end
$var wire 32 :" registers_ [31:0] $end
$upscope $end
$scope begin register[18] $end
$var wire 32 ;" registers_ [31:0] $end
$upscope $end
$scope begin register[19] $end
$var wire 32 <" registers_ [31:0] $end
$upscope $end
$scope begin register[20] $end
$var wire 32 =" registers_ [31:0] $end
$upscope $end
$scope begin register[21] $end
$var wire 32 >" registers_ [31:0] $end
$upscope $end
$scope begin register[22] $end
$var wire 32 ?" registers_ [31:0] $end
$upscope $end
$scope begin register[23] $end
$var wire 32 @" registers_ [31:0] $end
$upscope $end
$scope begin register[24] $end
$var wire 32 A" registers_ [31:0] $end
$upscope $end
$scope begin register[25] $end
$var wire 32 B" registers_ [31:0] $end
$upscope $end
$scope begin register[26] $end
$var wire 32 C" registers_ [31:0] $end
$upscope $end
$scope begin register[27] $end
$var wire 32 D" registers_ [31:0] $end
$upscope $end
$scope begin register[28] $end
$var wire 32 E" registers_ [31:0] $end
$upscope $end
$scope begin register[29] $end
$var wire 32 F" registers_ [31:0] $end
$upscope $end
$scope begin register[30] $end
$var wire 32 G" registers_ [31:0] $end
$upscope $end
$scope begin register[31] $end
$var wire 32 H" registers_ [31:0] $end
$upscope $end
$upscope $end
$scope module IDU $end
$var wire 6 I" opcode [5:0] $end
$var reg 2 J" alu_opcode [1:0] $end
$var reg 1 b alu_source $end
$var reg 1 ] branch_eq $end
$var reg 1 Z branch_ne $end
$var reg 1 D jump $end
$var reg 1 > memory_read $end
$var reg 1 < memory_to_register $end
$var reg 1 8 memory_write $end
$var reg 1 1 register_destination $end
$var reg 1 / register_write $end
$var reg 1 + shift_upper $end
$upscope $end
$scope module IFU $end
$var wire 1 p branch $end
$var wire 32 K" branch_address [31:0] $end
$var wire 32 L" instruction [31:0] $end
$var wire 1 ? jump $end
$var wire 32 M" jump_address [31:0] $end
$var wire 1 " reset $end
$var wire 1 q stall_stage_ifid $end
$var wire 1 # system_clock $end
$var wire 10 N" memory_index [9:0] $end
$var wire 32 O" memory_data_out [31:0] $end
$var reg 32 P" program_counter [31:0] $end
$scope module memory $end
$var wire 10 Q" address [9:0] $end
$var wire 32 R" data_out [31:0] $end
$var wire 1 # system_clock $end
$var integer 32 S" i [31:0] $end
$upscope $end
$upscope $end
$scope module decoded_ex_mem_latch $end
$var wire 1 T" hold $end
$var wire 3 U" input_signal [2:0] $end
$var wire 1 i reset $end
$var wire 1 # system_clock $end
$var reg 3 V" output_signal [2:0] $end
$upscope $end
$scope module ex_mem_latch $end
$var wire 1 W" hold $end
$var wire 135 X" input_signal [134:0] $end
$var wire 1 j reset $end
$var wire 1 # system_clock $end
$var reg 135 Y" output_signal [134:0] $end
$upscope $end
$scope module id_ex_latch $end
$var wire 1 q hold $end
$var wire 124 Z" input_signal [123:0] $end
$var wire 1 i reset $end
$var wire 1 # system_clock $end
$var reg 124 [" output_signal [123:0] $end
$upscope $end
$scope module if_id_latch $end
$var wire 1 q hold $end
$var wire 64 \" input_signal [63:0] $end
$var wire 1 k reset $end
$var wire 1 # system_clock $end
$var reg 64 ]" output_signal [63:0] $end
$upscope $end
$scope module jump_branch_latch $end
$var wire 1 ^" hold $end
$var wire 67 _" input_signal [66:0] $end
$var wire 1 i reset $end
$var wire 1 # system_clock $end
$var reg 67 `" output_signal [66:0] $end
$upscope $end
$scope module mem_wb_latch $end
$var wire 1 a" hold $end
$var wire 71 b" input_signal [70:0] $end
$var wire 1 c" reset $end
$var wire 1 # system_clock $end
$var reg 71 d" output_signal [70:0] $end
$upscope $end
$scope module memory $end
$var wire 32 e" address [31:0] $end
$var wire 32 f" read_data [31:0] $end
$var wire 1 # system_clock $end
$var wire 32 g" write_data [31:0] $end
$var wire 1 6 write_enable $end
$upscope $end
$scope module rs_latch $end
$var wire 1 q hold $end
$var wire 5 h" input_signal [4:0] $end
$var wire 1 i" reset $end
$var wire 1 # system_clock $end
$var reg 5 j" output_signal [4:0] $end
$upscope $end
$scope module sign_extension $end
$var wire 1 k" extension_type $end
$var wire 16 l" immediate [15:0] $end
$var wire 32 m" extended_value [31:0] $end
$upscope $end
$scope module zero_latch $end
$var wire 1 n" hold $end
$var wire 1 & input_signal $end
$var wire 1 o" reset $end
$var wire 1 # system_clock $end
$var reg 1 % output_signal $end
$upscope $end
$upscope $end
$upscope $end
$enddefinitions $end
#0
$dumpvars
0o"
0n"
bx m"
bx l"
xk"
bx j"
0i"
bx h"
bx g"
bx f"
bx e"
bx d"
0c"
bx b"
0a"
bx `"
bx00xxxxxxxxxxxxxxxxxxxxxxxxxxxxxxxxxx _"
0^"
bx ]"
b10000110100000000110000000010010011 \"
bx ["
bx Z"
bx Y"
bx X"
0W"
bx V"
bx U"
0T"
b10000000000 S"
b110100000000110000000010010011 R"
b0 Q"
b0 P"
b110100000000110000000010010011 O"
b0 N"
bx M"
b110100000000110000000010010011 L"
bx K"
bx J"
bx I"
b0 H"
b0 G"
b0 F"
b0 E"
b0 D"
b0 C"
b0 B"
b0 A"
b0 @"
b0 ?"
b0 >"
b0 ="
b0 <"
b0 ;"
b0 :"
b0 9"
b0 8"
b0 7"
b0 6"
b0 5"
b0 4"
b0 3"
b0 2"
b0 1"
b0 0"
b0 /"
b0 ."
b0 -"
b0 ,"
b0 +"
b0 *"
b0 )"
b100000 ("
bx '"
bx &"
bx %"
bx $"
bx #"
bx ""
bx !"
bx ~
bx }
bx |
bx {
bx z
bx y
xx
xw
xv
xu
bx t
bx s
bx r
xq
xp
bx o
bx n
bx m
bx l
xk
xj
xi
bx h
bx g
bx f
bx e
bx d
bx c
xb
xa
bx `
bx _
bx ^
x]
x\
x[
xZ
bx Y
bx X
bx W
bx V
bx U
bx T
bx S
bx R
bx Q
bx P
bx O
bx N
bx M
bx L
bx K
bx J
bx I
bx H
bx G
b110100000000110000000010010011 F
bx E
xD
bx00 C
bx B
bx A
x@
x?
x>
x=
x<
x;
x:
x9
x8
x7
x6
bx 5
b0 4
b100 3
bx 2
x1
x0
x/
x.
x-
x,
x+
bx *
bx )
bx (
bx '
x&
x%
1$
0#
1"
bx !
$end
#5
b10010111 `
1k"
0+
0D
1/
01
08
0<
0>
0Z
0]
1b
b0 g
b0 J"
0q
b0 Q
b0 '"
b0 O
b0 &"
b11 L
b10010011 U
b10010011 m"
b1101 5
b1101 I"
b10011 S
b0 *
b0 ""
b0 h"
b11 (
b11 #"
b1001000010011000000000000000000000000000000000000000000000000000000000000000000011000000001100000000000000000000000010010011 Z"
b0 W
b10010011 G
b10010011 l"
b110000000010010011000000000000000000000000000100101110 _"
b11000000001001001100 C
b110100000001100000000010101110 F
b110100000001100000000010101110 L"
b110100000001100000000010101110 O"
b110100000001100000000010101110 R"
b1 N"
b1 Q"
b110100000000110000000010010011 E
b100 2
bx00xxxxxxxxxxxxxxxxxxxxxxxxxxxxxxxxx X"
bx00 B
b100000110100000001100000000010101110 \"
b1000 3
b100 4
b100 P"
b10000110100000000110000000010010011 ]"
bx00xxxxxxxxxxxxxxxxxxxxxxxxxxxxxxxxxx `"
0j
0i
0k
1#
#10
0#
#15
0&
b10010011 e
b10010011 {
b0 m
b0 l
0v
1x
0w
1u
b110 L
b10101110 U
b10101110 m"
b0 o
b11111111111111111111111101101101 t
b10010011 z
b0 n
b0 r
b110 !"
b10 h
b10 y
b10 ~
b10010011 s
b101110 S
b1001000101110000000000000000000000000000000000000000000000000000000000000000000110000000011000000000000000000000000010101110 Z"
b110 (
b110 #"
b10101110 G
b10101110 l"
b110000000001010111000 C
bx00 A
bx00 M"
b10010011 T
b11 K
b0 V
b11 '
b0 N
b0 P
b10011 R
b10011 }
b0 f
b0 |
00
1a
07
0;
b100 U"
1.
0=
b10010111 _
0\
b11000000001001001100 B
b100100110000000000000000000000000000000000011000000000000011000000001001001100000000000000000000000000010010111 X"
0@
b110100000001100000000010101110 E
b1100000000010101110000000000000000000000000000101101100 _"
b10110110 `
b1000 2
b11001100100000000100001 F
b11001100100000000100001 L"
b11001100100000000100001 O"
b11001100100000000100001 R"
b10 N"
b10 Q"
bx00xxxxxxxxxxxxxxxxxxxxxxxxxxxxxxxxx Y"
b1001000010011000000000000000000000000000000000000000000000000000000000000000000011000000001100000000000000000000000010010011 ["
b0 )
b0 j"
b110000000010010011000000000000000000000000000100101110 `"
b100000110100000001100000000010101110 ]"
b110000000000011001100100000000100001 \"
b1100 3
b1000 4
b1000 P"
1#
#20
0#
#25
b1000 L
11
0b
b10 g
b10 J"
b10101110 e
b10101110 {
0p
b100000000100001 U
b100000000100001 m"
b0 5
b0 I"
b100001 S
b11 *
b11 ""
b11 h"
b1000110100001000000000000000000000000000000000000000000000000000000000000000000110010000100000000000000000000100000000100001 Z"
b1000 W
b100000000100001 G
b100000000100001 l"
b1100110010000000010000100 C
b11111111111111111111111101010010 t
b10101110 z
b10101110 s
b10 !"
b11001100100100000100011 F
b11001100100100000100011 L"
b11001100100100000100011 O"
b11001100100100000100011 R"
b11 N"
b11 Q"
b11001100100000000100001 E
b11001100100000000100001000000000000000000001000000001011010 _"
b100000000101101 `
b1100 2
b10110110 _
b110000000001010111000 B
b10101110 T
b101011100000000000000000000000000000000000110000000000000110000000001010111000000000000000000000000000010110110 X"
b110 K
b110 '
b101110 R
b101110 }
b10010111 ^
b10010111 K"
0[
b11000000001001001100 A
b11000000001001001100 M"
0?
b11 J
b0 M
b0 g"
b10010011 d
b10010011 e"
06
0:
b10xxxxxxxxxxxxxxxxxxxxxxxxxxxxxxxx0000000000000000000000001001001100011 b"
1-
b1000000000000011001100100100000100011 \"
b10000 3
b1100 4
b1100 P"
b110000000000011001100100000000100001 ]"
b1100000000010101110000000000000000000000000000101101100 `"
b1001000101110000000000000000000000000000000000000000000000000000000000000000000110000000011000000000000000000000000010101110 ["
0%
b100100110000000000000000000000000000000000011000000000000011000000001001001100000000000000000000000000010010111 Y"
b100 V"
1#
#30
0#
#35
b10101110 o
b10010011 n
b10010011 r
0&
b10010011 e
b10010011 {
b1 m
b10 l
0x
0u
b1001 L
b100100000100011 U
b100100000100011 m"
b10010011 !
b10010011 %"
b10010011 H
b10010011 t
b10010011 z
b0 s
b100011 S
b1000110100011000000000000000000000000000000000000000000000000000000000000000000110010010100100000000000000000100100000100011 Z"
b1001 W
b100100000100011 G
b100100000100011 l"
b1100110010010000010001100 C
b11 I
b11 $"
b10010011 c
09
1,
b10110110 ^
b10110110 K"
b110000000001010111000 A
b110000000001010111000 M"
b110 J
b10xxxxxxxxxxxxxxxxxxxxxxxxxxxxxxxx0000000000000000000000001010111000110 b"
b10101110 d
b10101110 e"
b100000000100001 T
b1000 K
b1000 V
b100001 R
b100001 }
b10 f
b10 |
10
0a
b100000000101101 _
b100100110000000000000000000000001010111001000000000001100110010000000010000100000000000000000000100000000101101 X"
b1100110010000000010000100 B
b11001100100100000100011 E
b11001100100100000100011000000000000000000001001000001100110 _"
b100100000110011 `
b10000 2
b1001010100000000000100001 F
b1001010100000000000100001 L"
b1001010100000000000100001 O"
b1001010100000000000100001 R"
b100 N"
b100 Q"
b10xxxxxxxxxxxxxxxxxxxxxxxxxxxxxxxx0000000000000000000000001001001100011 d"
b101011100000000000000000000000000000000000110000000000000110000000001010111000000000000000000000000000010110110 Y"
b1000110100001000000000000000000000000000000000000000000000000000000000000000000110010000100000000000000000000100000000100001 ["
b11 )
b11 j"
b11001100100000000100001000000000000000000001000000001011010 `"
b1000000000000011001100100100000100011 ]"
b1010000000001001010100000000000100001 \"
b10100 3
b10000 4
b10000 P"
1#
#40
0#
#45
1&
b0 e
b0 {
b10 m
b0 l
b0 L
b100001 U
b100001 m"
b110 h
b110 y
b110 ~
b100001 S
b1001 *
b1001 ""
b1001 h"
b1010 (
b1010 #"
b0 W
b100001 G
b100001 l"
b100101010000000000010000100 C
b110 !"
b0 t
b0 z
b0 n
b0 r
b10101110 o
b10101110 !
b10101110 %"
b10101110 H
b10101100000010010000000000010000 F
b10101100000010010000000000010000 L"
b10101100000010010000000000010000 O"
b10101100000010010000000000010000 R"
b101 N"
b101 Q"
b1001010100000000000100001 E
b1001010100000000000100001000000000000000000000000000001101010 _"
b110101 `
b10100 2
b1000110100001000000000000000000000000000000000000000000000000000000000000000001010000000000000000000000000000000000000100001 Z"
b0 Q
b0 '"
b100100000110011 _
b1100110010010000010001100 B
b100100000100011 T
b1010111001001000000001100110010010000010001100000000000000000000100100000110011 X"
b1001 K
b1001 V
b100011 R
b100011 }
b100000000101101 ^
b100000000101101 K"
b1100110010000000010000100 A
b1100110010000000010000100 M"
b1000 J
b10101110 M
b10101110 g"
b10xxxxxxxxxxxxxxxxxxxxxxxxxxxxxxxx0000000000000000000000001001001101000 b"
b10010011 d
b10010011 e"
b110 I
b110 $"
b10101110 c
b1100010101100000010010000000000010000 \"
b11000 3
b10100 4
b10100 P"
b1010000000001001010100000000000100001 ]"
b10010011 ,"
b11001100100100000100011000000000000000000001001000001100110 `"
b1000110100011000000000000000000000000000000000000000000000000000000000000000000110010010100100000000000000000100100000100011 ["
b100100110000000000000000000000001010111001000000000001100110010000000010000100000000000000000000100000000101101 Y"
b10xxxxxxxxxxxxxxxxxxxxxxxxxxxxxxxx0000000000000000000000001010111000110 d"
1#
#50
0#
#55
0/
1b
b0 g
b0 J"
18
b0 m
b1 l
b0 o
b10 h
b10 y
b10 ~
b10000 U
b10000 m"
b10010011 !
b10010011 %"
b10010011 H
b10 !"
b101011 5
b101011 I"
b10000 S
b0 *
b0 ""
b0 h"
b11100010000000000000000000000000000000000000000000000000000000000000000000001001000000000000000000000000000000000000010000 Z"
b1001 (
b1001 #"
b10000 G
b10000 l"
b1001000000000001000000 C
b1000 I
b1000 $"
b10010011 c
b100100000110011 ^
b100100000110011 K"
b1100110010010000010001100 A
b1100110010010000010001100 M"
b1001 J
b10xxxxxxxxxxxxxxxxxxxxxxxxxxxxxxxx0000000000000000000000000000000001001 b"
b0 d
b0 e"
b100001 T
b0 K
b0 V
b1010 '
b100001 R
b100001 }
b110101 _
b100101010000000000010000100000000000000000000000000000110101 X"
b100101010000000000010000100 B
b10101100000010010000000000010000 E
b10010000000000010000000000000000000000000000000001010000 _"
b101000 `
b11000 2
b10001100000010100000000000010000 F
b10001100000010100000000000010000 L"
b10001100000010100000000000010000 O"
b10001100000010100000000000010000 R"
b110 N"
b110 Q"
b10xxxxxxxxxxxxxxxxxxxxxxxxxxxxxxxx0000000000000000000000001001001101000 d"
b1010111001001000000001100110010010000010001100000000000000000000100100000110011 Y"
1%
b1000110100001000000000000000000000000000000000000000000000000000000000000000001010000000000000000000000000000000000000100001 ["
b1001 )
b1001 j"
b1001010100000000000100001000000000000000000000000000001101010 `"
b10101110 /"
b1100010101100000010010000000000010000 ]"
b1110010001100000010100000000000010000 \"
b11100 3
b11000 4
b11000 P"
1#
#60
0#
#65
b1010 L
1<
01
1>
1/
08
1b
b0 g
b0 J"
0&
b10000 e
b10000 {
b10 m
1x
1u
b100011 5
b100011 I"
b1101000010000000000000000000000000000000000000000000000000000000000000000000001010000000101000000000000000000000000000010000 Z"
b1010 (
b1010 #"
b1010000000000001000000 C
b11111111111111111111111111110000 t
b10000 z
b10000 s
b0 !
b0 %"
b0 H
b10001001010100000000000000010 F
b10001001010100000000000000010 L"
b10001001010100000000000000010 O"
b10001001010100000000000000010 R"
b111 N"
b111 Q"
b10001100000010100000000000010000 E
b10100000000000010000000000000000000000000000000001011001 _"
b101100 `
b11100 2
b101000 _
b100000000000000000000000000000000000000000000000000001001000000000001000000000000000000000000000000000101000 X"
b1001000000000001000000 B
b10000 T
b1001 '
b10000 R
b10000 }
b0 f
b0 |
1a
17
b1 U"
0.
b110101 ^
b110101 K"
b100101010000000000010000100 A
b100101010000000000010000100 M"
b10xxxxxxxxxxxxxxxxxxxxxxxxxxxxxxxx0000000000000000000000000000000000000 b"
b0 J
b0 M
b0 g"
b1001 I
b1001 $"
b0 c
b10000000010001001010100000000000000010 \"
b100000 3
b11100 4
b11100 P"
b1110010001100000010100000000000010000 ]"
b10010011 1"
b10010000000000010000000000000000000000000000000001010000 `"
b0 )
b0 j"
b11100010000000000000000000000000000000000000000000000000000000000000000000001001000000000000000000000000000000000000010000 ["
b100101010000000000010000100000000000000000000000000000110101 Y"
b10xxxxxxxxxxxxxxxxxxxxxxxxxxxxxxxx0000000000000000000000000000000001001 d"
1#
#70
0#
#75
b0 L
b10000 e
b10000 {
0/
1]
11
0<
0>
0b
b1 g
b1 J"
b0 m
b10 l
1q
1x
1u
b10 U
b10 m"
b11111111111111111111111111110000 t
b10000 z
b0 n
b0 r
b100 5
b100 I"
b101000010000000000000000000000000000000000000000000000000000000000000000001010000000000000000000000000000000000000000010 Z"
b10 S
b1001 *
b1001 ""
b1001 h"
b10 G
b10 l"
b100101010000000000000001000 C
b0 I
b0 $"
16
0-
b101000 ^
b101000 K"
b1001000000000001000000 A
b1001000000000001000000 M"
b0xxxxxxxxxxxxxxxxxxxxxxxxxxxxxxxx0000000000000000000000000001000000000 b"
b10000 d
b10000 e"
b1010 K
b1010 '
00
07
1;
b110 U"
1.
1=
b101100 _
b100000000000000000000000000000000000001010000000000001010000000000001000000000000000000000000000000000101100 X"
b1010000000000001000000 B
b10001001010100000000000000010 E
b1001010100000000000000010001000000000000000000000000001000100 _"
b100010 `
b100000 2
b111100000010111100110111001101 F
b111100000010111100110111001101 L"
b111100000010111100110111001101 O"
b111100000010111100110111001101 R"
b1000 N"
b1000 Q"
b10xxxxxxxxxxxxxxxxxxxxxxxxxxxxxxxx0000000000000000000000000000000000000 d"
b1 V"
b100000000000000000000000000000000000000000000000000001001000000000001000000000000000000000000000000000101000 Y"
0%
b1101000010000000000000000000000000000000000000000000000000000000000000000000001010000000101000000000000000000000000000010000 ["
b10100000000000010000000000000000000000000000000001011001 `"
b10000000010001001010100000000000000010 ]"
b10010000111100000010111100110111001101 \"
b100100 3
b100000 4
b100000 P"
1#
#80
0#
#85
b10000 o
b10000 e
b10000 {
0q
b1 m
b0 l
1x
1u
b11111111111111111111111111110000 t
b10000 z
b0 n
b0 r
b10000 !
b10000 %"
b10000 H
0=
b100010 _
1\
b100000000000000000000000000000001000001010000000100101010000000000000001000100000000000000000000000000100010 X"
b100101010000000000000001000 B
b101100 ^
b101100 K"
b1010000000000001000000 A
b1010000000000001000000 M"
b1010 J
06
1:
1-
b10000 c
0,
b1001010100000000000000010001000000000000000000000000001000100 `"
b100000000000000000000000000000000000001010000000000001010000000000001000000000000000000000000000000000101100 Y"
b110 V"
b11000000000000000000000000000000000000000000000000000000000001000001010 b"
b0 Y
b0 f"
b0xxxxxxxxxxxxxxxxxxxxxxxxxxxxxxxx0000000000000000000000000001000000000 d"
1#
#90
0#
#95
0k"
1&
b0 e
b0 {
01
1+
1b
1/
0]
b0 g
b0 J"
0x
0u
0v
b1011 L
b11001101110011010000000000000000 U
b11001101110011010000000000000000 m"
b0 !
b0 %"
b0 H
b110 h
b110 y
b110 ~
b0 t
b0 z
b0 s
b1111 5
b1111 I"
b1101 S
b0 *
b0 ""
b0 h"
b1011 (
b1011 #"
b1001000001101000000000000000000000000000000000000000000000000000000000000000001011110010101111001101110011010000000000000000 Z"
b11001 W
b1100110111001101 G
b1100110111001101 l"
b1011110011011100110100 C
b1010 I
b1010 $"
b0 X
19
1,
b100010 ^
b100010 K"
1[
b100101010000000000000001000 A
b100101010000000000000001000 M"
b10000 M
b10000 g"
b10 T
b1000000000000000100101010000000000000001000100000000000000000000000000100010 X"
b0 K
b10 R
b10 }
b1 f
b1 |
10
0a
0;
b0 U"
0.
b111100000010111100110111001101 E
b10111100110111001101000110011011100110100000000001001000 _"
b11001101110011010000000000100100 `
b100100 2
b1000000000000000110000001101 F
b1000000000000000110000001101 L"
b1000000000000000110000001101 O"
b1000000000000000110000001101 R"
b1001 N"
b1001 Q"
b11000000000000000000000000000000000000000000000000000000000001000001010 d"
b100000000000000000000000000000001000001010000000100101010000000000000001000100000000000000000000000000100010 Y"
b101000010000000000000000000000000000000000000000000000000000000000000000001010000000000000000000000000000000000000000010 ["
b1001 )
b1001 j"
b10010000111100000010111100110111001101 ]"
b10100000001000000000000000110000001101 \"
b101000 3
b100100 4
b100100 P"
1#
#100
0#
#105
1k"
1D
0+
11
0b
b10 g
b10 J"
0&
b11001101110011010000000000000000 e
b11001101110011010000000000000000 {
b0 m
1p
b1 L
b110000001101 U
b110000001101 m"
b10 5
b10 I"
b0 (
b0 #"
b1000110001101000000000000000000000000000000000000000000000000000000000000000000000000010000100000000000000000000110000001101 Z"
b1 W
b110000001101 G
b110000001101 l"
b11000000110100 C
b10 h
b10 y
b10 ~
b110010001100110000000000000000 t
b11001101110011010000000000000000 z
b11001101110011010000000000000000 s
bx Y
bx f"
b0 o
b110100000010111110111111101111 F
b110100000010111110111111101111 L"
b110100000010111110111111101111 O"
b110100000010111110111111101111 R"
b1010 N"
b1010 Q"
b1000000000000000110000001101 E
b1000000000000000000110000001101000000000000000000000001100001101010 _"
b110000110101 `
b101000 2
b11001101110011010000000000100100 _
0\
b1011110011011100110100 B
b11001101110011010000000000000000 T
b110011011100110100000000000000000000000000000000000000000000000001011000000000001011110011011100110100011001101110011010000000000100100 X"
b1011 K
b11001 V
b1011 '
b1101 R
b1101 }
b0 f
b0 |
00
1a
b100 U"
1.
b0 J
b0 d
b0 e"
0:
b0xxxxxxxxxxxxxxxxxxxxxxxxxxxxxxxx0000000000000000000000000000000000000 b"
0-
b10110000110100000010111110111111101111 \"
b101100 3
b101000 4
b101000 P"
b10100000001000000000000000110000001101 ]"
b10111100110111001101000110011011100110100000000001001000 `"
b0 )
b0 j"
b1001000001101000000000000000000000000000000000000000000000000000000000000000001011110010101111001101110011010000000000000000 ["
1%
b1000000000000000100101010000000000000001000100000000000000000000000000100010 Y"
b0 V"
1#
#110
0#
#115
1&
b0 e
b0 {
01
1b
b0 g
b0 J"
0D
0p
b1011 L
b11111111111111111110111111101111 U
b11111111111111111110111111101111 m"
b0 t
b0 z
b0 s
b1101 5
b1101 I"
b101111 S
b1011 (
b1011 #"
b1001000101111000000000000000000000000000000000000000000000000000000000000000001011111010101111111111111111111110111111101111 Z"
b11101 W
b1110111111101111 G
b1110111111101111 l"
b1011111011111110111100 C
b0 I
b0 $"
b0 c
bx X
09
0,
1-
b11001101110011010000000000100100 ^
b11001101110011010000000000100100 K"
0[
b1011110011011100110100 A
b1011110011011100110100 M"
b1011 J
b0 M
b0 g"
b10xxxxxxxxxxxxxxxxxxxxxxxxxxxxxxxx1100110111001101000000000000000001011 b"
b11001101110011010000000000000000 d
b11001101110011010000000000000000 e"
b110000001101 T
b1 K
b1 V
b0 '
b10 f
b10 |
10
0a
b110000110101 _
b11000000110100 B
b1100000000000000000011000000110100000000000000000000000110000110101 X"
1@
b110100000010111110111111101111 E
b10111110111111101111000111111111111111111110000000110110 _"
b11111111111111111111000000011011 `
b101100 2
b111100000010111100110111001101 F
b111100000010111100110111001101 L"
b111100000010111100110111001101 O"
b111100000010111100110111001101 R"
b1000 N"
b1000 Q"
1j
1i
1k
b0xxxxxxxxxxxxxxxxxxxxxxxxxxxxxxxx0000000000000000000000000000000000000 d"
b100 V"
b110011011100110100000000000000000000000000000000000000000000000001011000000000001011110011011100110100011001101110011010000000000100100 Y"
0%
b1000110001101000000000000000000000000000000000000000000000000000000000000000000000000010000100000000000000000000110000001101 ["
b1000000000000000000110000001101000000000000000000000001100001101010 `"
b10110000110100000010111110111111101111 ]"
b10011000111100000010111100110111001101 \"
b100110 3
b100010 4
b100010 P"
1#
#120
0#
